in-class_ex10
…
bring in population data

popagsex <- read_csv('data/aspatial/respopagsex2000to2018.csv')

data wrangling

with pivot wider - should use this one

popagsex %>%
  filter(Sex == 'Males') %>%
  filter(Time == 2018) %>%
  pivot_wider(names_from = AG, values_from = Pop)

## # A tibble: 323 x 22
##    PA     SZ      Sex    Time `0_to_4` `5_to_9` `10_to_14` `15_to_19` `20_to_24`
##    <chr>  <chr>   <chr> <dbl>    <dbl>    <dbl>      <dbl>      <dbl>      <dbl>
##  1 Ang M~ Ang Mo~ Males  2018       90      140        150        150        130
##  2 Ang M~ Cheng ~ Males  2018      550      580        570        690        720
##  3 Ang M~ Chong ~ Males  2018      460      470        580        660        730
##  4 Ang M~ Kebun ~ Males  2018      340      380        470        570        610
##  5 Ang M~ Sembaw~ Males  2018      100      120        170        250        250
##  6 Ang M~ Shangr~ Males  2018      300      330        330        400        500
##  7 Ang M~ Tagore  Males  2018      130      160        220        220        320
##  8 Ang M~ Townsv~ Males  2018      430      490        490        430        510
##  9 Ang M~ Yio Ch~ Males  2018        0        0          0          0          0
## 10 Ang M~ Yio Ch~ Males  2018       90       80        120        120        180
## # ... with 313 more rows, and 13 more variables: 25_to_29 <dbl>,
## #   30_to_34 <dbl>, 35_to_39 <dbl>, 40_to_44 <dbl>, 45_to_49 <dbl>,
## #   50_to_54 <dbl>, 55_to_59 <dbl>, 60_to_64 <dbl>, 65_to_69 <dbl>,
## #   70_to_74 <dbl>, 75_to_79 <dbl>, 80_to_84 <dbl>, 85_and_over <dbl>
…
